<?xml version="1.0" encoding="UTF-8"?>
<svg width="30px" height="27px" viewBox="0 0 30 27" version="1.1" xmlns="http://www.w3.org/2000/svg" xmlns:xlink="http://www.w3.org/1999/xlink">
    <!-- Generator: Sketch 46.2 (44496) - http://www.bohemiancoding.com/sketch -->
    <title>bar-chart</title>
    <desc>Created with Sketch.</desc>
    <defs></defs>
    <g id="Page-1" stroke="none" stroke-width="1" fill="none" fill-rule="evenodd">
        <g id="app.AdRux.com/dashboard/inbox-Copy" transform="translate(-36.000000, -407.000000)" fill-rule="nonzero" fill="#34495E">
            <g id="bar-chart" transform="translate(36.000000, 407.000000)">
                <path d="M29.1366444,24.8062824 L0.705009063,24.8062824 C0.315610456,24.8062824 0,25.1218929 0,25.5112915 C0,25.9005735 0.315610456,26.2163006 0.705009063,26.2163006 L29.1366444,26.2163006 C29.5259265,26.2163006 29.8416535,25.9005735 29.8416535,25.5112915 C29.8416535,25.1219512 29.526043,24.8062824 29.1366444,24.8062824 Z" id="Shape"></path>
                <path d="M27.2987016,3.33999209 L22.3475517,3.33999209 C21.9582696,3.33999209 21.6425426,3.65571912 21.6425426,4.04500116 L21.6425426,8.83831675 L18.1013525,8.83831675 L18.1013525,0.716724244 C18.1013525,0.327442206 17.7856255,0.0117151804 17.3963434,0.0117151804 L12.4450769,0.0117151804 C12.0557949,0.0117151804 11.7400678,0.327442206 11.7400678,0.716724244 L11.7400678,14.0569925 L8.19887772,14.0569925 L8.19887772,8.06424058 C8.19887772,7.67484197 7.8831507,7.35923151 7.49386866,7.35923151 L2.5427187,7.35923151 C2.15332009,7.35923151 1.83770964,7.67484197 1.83770964,8.06424058 L1.83770964,21.5607695 C1.83770964,21.9501681 2.15343666,22.2657786 2.5427187,22.2657786 L7.49386866,22.2657786 L12.4450186,22.2657786 L17.3962851,22.2657786 L22.3474934,22.2657786 L27.2986434,22.2657786 C27.688042,22.2657786 28.0036524,21.9500515 28.0036524,21.5607695 L28.0036524,4.04500116 C28.0037107,3.65571912 27.6881002,3.33999209 27.2987016,3.33999209 Z M6.78891788,20.8557604 L3.24772776,20.8557604 L3.24772776,8.76924964 L6.78891788,8.76924964 L6.78891788,20.8557604 Z M11.7401844,20.8557604 L8.19899429,20.8557604 L8.19899429,15.4670106 L11.7401844,15.4670106 L11.7401844,20.8557604 Z M16.6913927,9.54332581 L16.6913927,20.8557604 L13.1501443,20.8557604 L13.1501443,1.42173331 L16.6913927,1.42173331 L16.6913927,9.54332581 Z M21.6426592,20.8557604 L18.1014691,20.8557604 L18.1014691,10.2483349 L21.6426592,10.2483349 L21.6426592,20.8557604 Z M26.5938091,20.8557604 L23.0526773,20.8557604 L23.0526773,9.54332581 L23.0526773,4.75001022 L26.5938674,4.75001022 L26.5938674,20.8557604 L26.5938091,20.8557604 Z" id="Shape"></path>
            </g>
        </g>
    </g>
</svg>